Query,Result-Title,Result-Lat,Result-Lon,Result-Score
"Ormiophasia busckii Townsend","Townsend, TN, United States",35.67641,-83.75488,0.31
"Mocache","Mocache, Los Ríos, Ecuador",-1.20001,-79.54535,1.0
"Montagne de la Gardiole","La Montagne, Loire Region, France",47.19106,-1.68703,0.4
"Macrocera Meigen","Megen, North Brabant, Netherlands",51.82226,5.56448,0.33
"Tissemsilt","Tissemsilt, Algeria",35.60698,1.8123,1.0
"Xinjiang Uygur Autonomous region","Bangsamoro Autonomous Region, Philippines",6.94207,123.32942,0.55
"Stylocellidae Hansen","Hansen, ID, United States",42.5333,-114.30032,0.32
"Rhynsdorp","Ransdorp, North Holland, Netherlands",52.39306,4.99426,0.67
"Minkina","Minkina mājas, Griškānu pagasts, Rēzeknes novads, LV-4641, Latvia",56.46263,27.49191,0.99
"Liderwat",
"Dressler, Hills","Dresser Ct, Raleigh, NC 27609, United States",35.83312,-78.61877,0.92
"Ludesa Mission","Mission, BC, Canada",49.13295,-122.32108,0.54
"Jinggangshan Natural Reserve of Jiangxi Province",
"Yuyingzi Village","Village-Neuf, Grand Est, France",47.60537,7.57136,0.47
"South Western Tasmania","South West, TAS 7139, Australia",-42.81889,146.28632,0.85
"Sorhagenia","Sörhagen, Mellerud, Vastra Gotaland County, Sweden",58.55966,12.49822,0.8
"Guangxi Province of Southwest China","Southwest Finland, Finland",60.4528,22.25155,0.35
"Sitio Old Liboron",
"Santa Terezita","Rua Santa Terezina, Assis Chateaubriand - PR, 85935-000, Brazil",-24.4102,-53.53918,0.85
"Kalungwishi Rivers","Kalungwisi, Chiengi, Luapula, Zambia",-9.03468,29.03185,0.59
"Europe Hebecnema","Europe, Western Cape, South Africa",-33.98201,18.58413,0.4
"Rio Cuchuyjachi","El Cucuyachi, Atoyac de Álvarez, Gro, Mexico",17.22641,-100.29006,0.61
"Urt Tsaramiin Nuur (Lake",
"Flanco","Barrio El Flanco, 33787 Valdés (Asturias), Spain",43.54076,-6.50867,1.0
"Mission City","Outer Mission, Daly City, CA, United States",37.7124,-122.44913,0.86
"Lopušná Dolina Valley","Dolina, San Dorligo della Valle, Friuli-Venezia Giulia, Italy",45.60289,13.85473,0.32
"Narceoheterozercon",
"Bentong Rd.","Benton Road, Newcastle upon Tyne, NE7 7, United Kingdom",55.00137,-1.57953,0.89
"Errinundra Saddle","Errinundra, VIC 3889, Australia",-37.45638,148.70145,0.63
"Zotta","Via Zotta, 6934 Bioggio Ticino, Switzerland",46.02022,8.91082,1.0
"Río Hondo","Río Hondo, Santiago del Estero, Argentina",-27.48785,-64.76055,1.0
"Abisko Scientific Research Station","Abisko Naturvetenskapliga station",68.35464,18.81576,0.93
"Pauropsylla",
"EHRMANN","Impasse Ehrmann, 67000 Strasbourg, France",48.59256,7.75525,1.0
"SPANIA Meigen","Meigen, 42651 Solingen, Germany",51.17061,7.10651,0.79
"Rocky Mts.","Rocky Mountain, Pictou County, NS, Canada",45.39653,-62.23843,0.88
"Linfeng village","Tri-Village, Columbus, OH, United States",39.99452,-83.03505,0.43
"Quezon Prov",
"Maiauatá village","Village-Neuf, Grand Est, France",47.60537,7.57136,0.47
"Pampean","Pampena Ln, Pittsburgh, PA 15239, United States",40.50725,-79.749,0.99
"Ginza","Ginza, Shimizu-ku, Shizuoka-shi, Shizuoka, Japan",35.01861,138.48548,1.0
"BJFC","BJF Rd, New Brighton 1, 6200, South Africa",-33.90278,25.58939,0.75
"Gabondery Mountains","Mountain Ash, Wales, United Kingdom",51.68459,-3.37918,0.5
"Fronsoma",
"Mt. Tiantang","Tiantang, Darou Minam II, Kaffrine, Senegal",14.08563,-15.19724,0.8
"Turtkul","Turt-Kul', Urgut tumani, Uzbekistan",39.41577,67.35365,1.0
"INFRAORDER Tyrannides",
"Miss","Miss, Bid Bid, Oman",23.1319,58.37315,1.0
"Callianassa","Callian, Provence-Alpes-Cote d'Azur, France",43.62301,6.75323,0.64
"Hyalopsyche",
"Russia Montagne Noire","Avenue de la Montagne Noire, 11610 Pennautier, France",43.248,2.31827,0.68
"ESPIRÍTO SANTO","Espírito Santo, RN, Brazil",-6.33285,-35.31054,1.0
"Poza Larga","Calle Loma Larga, Barrio La Poza, 39370 Acapulco de Juárez, Gro, Mexico",16.78485,-99.78604,0.99
"Ankole","E Ankole Dr, Oracle, AZ 85623, United States",32.58107,-110.92565,0.99
"Campostichommides Strand",
"Garmenjak Veli Island","N Garden Ave, Rock Island, WA 98850, United States",47.37705,-120.14368,0.6
"Microogeniusarrowi",
"Chilicolamavida",
"Poong Cave",
"Pamplona-Iruñea","Calle Pamplona-Iruñea, 01010 Vitoria (Álava), Spain",42.86344,-2.6997,1.0
"Northeastern Iran","Northeastern Industrial Park, Guilderland Center, NY 12085, United States",42.68884,-73.95657,0.84
"Caldelaria","Candelária, RS, Brazil",-29.67019,-52.78603,0.8
"Koumeiku","Komei, Minato-ku, Nagoya-shi, Aichi, Japan",35.10938,136.88677,0.75
"Popilnya","Popilnia, Popilnianskyi raion, Ukraine",49.95684,29.44341,0.75
"Montresta","Montresta, Sardinia, Italy",40.37429,8.49935,1.0
"Strombiformis",
"Morses Creek","Moses Rd, Conneaut Twp, PA 16401, United States",41.85067,-80.35873,0.82
"Mt. Evrechala",
"Europe Stigmellamicrotheriella",
"Carnarvon National Park Road","Carnarvon National Park Rd, Mount Moffatt QLD, Australia",-25.17809,147.92317,1.0
"St Augustine Beach","St Augustine Beach, FL, United States",29.85535,-81.28008,1.0
"Bagheera","Bagheera Way, Plympton, MA 02367, United States",42.0,-70.79444,0.99
"Marchagee","Marchagee, WA 6515, Australia",-30.00515,116.09087,1.0
"Calunga","Calunga, Boa Vista, RR, Brazil",2.80843,-60.67279,1.0
"Maidenhair Creek","Maidenhair Trl, Elgin, TX 78621, United States",30.34997,-97.43316,0.93
"Grapevine Lake Dam","Lake Park Dr, Grapevine, TX 76051, United States",32.96331,-97.11554,0.78
"Komprenya",
"Thomassinia moorea","Thomassin, Creve Coeur, Mauritius",-20.17296,57.56519,0.53
"Pediobomyia",
"Phareus","Pharus, 1503 Zaandam, Netherlands",52.44739,4.84554,0.86
"Ceratina daressalamica Strand Mozambique",
"El Colibrí","El Colibrí, 5527 El Sauce, Argentina",-32.8828,-68.75941,1.0
"Spondiaschakua Buj",
"Zuojiang River","River View, Kwazulu Natal, South Africa",-28.4377,32.18045,0.38
"Puerto Lapice","Puerto Lápice, Castille-La Mancha, Spain",39.32488,-3.481,1.0
"Trichouropoda",
"Mahaut Dominica","Dominica",15.30199,-61.38606,0.57
"Poelau","Pöllau, Styria, Austria",47.30194,15.83384,0.99
"Brugni","Bruni, TX, United States",27.42667,-98.84061,0.83
"Qingshanhu District","Lane Qingshan, Namasia District, Kaohsiung City, 849, Taiwan",23.27005,120.69069,0.72
"Espinar","Espinar, Cusco, Peru",-14.79355,-71.41094,1.0
"Carexarenaria",
"Newfoundland Slope A. bullisi Gulf of Mexico","Newfoundland, NJ, United States",41.04693,-74.43756,0.32
"MSNVE",
"Quercusvariabilis",
"Caligids",
"Palghat District","Palghar Sub-District, Maharashtra, India",19.69938,72.86413,0.8
"Inderskiy","Inder audani, Kazakhstan",48.54172,51.73159,0.99
"N.F. Eagle River","Eagle River, Machin, ON, Canada",49.8118,-93.1813,0.83
"Epocillacalcarata",
"Ochlockonee State Park","Ochlockonee River State Park",30.00242,-84.47698,0.96
"Lycoperdinellasubcaeca Champion",
"Caribeña","Caribena St, San Pedro, Belize",17.92127,-87.96145,0.99
"Nauset Light","Nauset Light Beach Rd, Eastham, MA 02642, United States",41.86608,-69.95509,0.99
"Mesamphisopus",
"China Dinghushan","Mount Martin, QLD 4754, Australia",-21.11394,148.80451,0.6
"Perrens","Perrens, Cestas, Nouvelle-Aquitaine, France",44.70005,-0.70666,1.0
"Isola Bianca","Viale Isola Bianca, 07026 Olbia SS, Italy",40.92333,9.51552,1.0
"Laguna de Alvarado","Calle Laguna de Alvarado, Lago I, 58115 Morelia, Mich, Mexico",19.7292,-101.21694,1.0
"California Rocky Mountains","Rock Ave, Mountain View, CA 94043, United States",37.41284,-122.09798,0.92
"Pisarzowice","Pisarzowice, Lubsza, Opole Voivodeship, Poland",50.878,17.48038,1.0
"Temotu Province","Province Sud, New Caledonia",-22.24293,166.46132,0.57
"Liuchiu Island","Island Lake, IL, United States",42.27512,-88.19123,0.46
"Pizarra","Pizarra, Andalucia, Spain",36.76729,-4.70757,1.0
"non-Andean South America","América, Joinville, SC, Brazil",-26.28443,-48.85434,0.33
"Heterlimnius",
"Zoological Museum Hamburg","Museumstraße, 22765 Hamburg, Germany",53.54965,9.93488,0.57
"Watson-Crick","Crick Ave SE & Watson Dr SE, Albuquerque, NM 87105, United States",35.0003,-106.61596,0.99
"Schraderia","Schrader, Rogers, AR, United States",36.29994,-94.12946,0.8
"SAUDI ARABIA","Saudi Arabia",24.68204,46.68725,1.0
"Maluku Tengah","Maluku Tengah, Indonesia",-3.59748,128.3366,1.0
"Las Condes","Las Condes, Region Santiago Metropolitan, Chile",-33.41657,-70.59553,1.0
"Arvidsjaur","Arvidsjaur, Norrbotten County, Sweden",65.59012,19.18356,1.0
"DERMATOCHELYIDAE",
"Hargeria",
"Manubada Local Island","Local Rd, Bowen Island, BC V0N, Canada",49.33702,-123.37774,0.71
"Katers","Katersberg, 2440 Geel, Belgium",51.17988,5.00087,0.99
"Sao Tomé","São Tomé, RN, Brazil",-5.97253,-36.07673,1.0
"Ozark Plateau","Ozark Plateau Dr, Henderson, NV 89044, United States",35.94371,-115.09444,0.99
"BRENTINAE Billberg","Billeberg, Sexdrega, Vastra Gotaland County, Sweden",57.57327,13.12871,0.47
"British Virgin Islands Anegada","Anegada, British Virgin Islands",18.72733,-64.3377,1.0
"Wahconah Falls State Park","Wahconah Falls State Park",42.48964,-73.11924,0.97
"Arunthan","Arunthan, Khandbari, Koshi, Nepal",27.42339,87.18212,1.0
"Olympic National Forest","National Forest Park",47.81415,4.79164,0.67
"Watauga River","River Ml, Sugar Grove, NC 28679, United States",36.24081,-81.82461,0.99
"Croissandeau",
"Njombe Region","Njombe, Tanzania",-9.33618,34.76882,0.5
"Kubor Range","Kuber Blvd, Durham, NC 27705, United States",36.03499,-79.00711,0.8
"Buea Slope","Buea, Cameroon",4.15464,9.23688,0.44
"Xe Kaman","Kaman, Kirsehir, Turkiye",39.35871,33.72439,0.71
"PENIN","Penin, Hauts-de-France, France",50.32767,2.48398,1.0
"Bufonides Bolívar","Bolívar, La Libertad, Peru",-7.13593,-77.73234,0.44
"Baicheng Xian","Huyện Yên Thành, Vietnam",19.044,105.44846,0.75
"Rebio Guaribas","Rua Guaribas, Eusébio - CE, 61760-000, Brazil",-3.87429,-38.4558,0.92
"Mount Rinjani","MT, United States",46.58976,-112.02066,0.42
"Lublin Area","Dublin, Street, MD, United States",39.65088,-76.26684,0.5
"Kah New Ireland","New Ireland, Irlande, QC, Canada",46.0979,-71.52301,0.77
"Spirostomum",
"ERIOTHRIX Meigen","Megen, North Brabant, Netherlands",51.82226,5.56448,0.33
"Acaguizotla","Acahuizotla, Chilpancingo, Gro, Mexico",17.35814,-99.46884,0.82
"Micrambe","Mirambé, Caucaia, CE, Brazil",-3.82354,-38.66496,0.87
"Etna Mountain","Mountain View Dr, Etna, ME 04434, United States",44.80852,-69.10404,0.99
"Provinz Kachin State Kanphat","Kachin State, Myanmar",25.38683,97.39389,0.44
"Megra","Megra, Vytegorskiy rayon, Northwestern Federal District, Russia",60.8662,36.00019,1.0
"Caneorhinus",
"Buka Island","Iceland",64.14748,-21.93419,0.6
"Recurvirostra",
"Karakeşli","Karakeşli, Erdemli, Mersin, Turkiye",36.65097,34.30558,1.0
"Aqaba Bay","Aqaba, Jordan",29.53202,35.00692,0.63
"Metagathotanais",
"Mideastern Queensland","Eastern Dr, Gatton QLD 4343, Australia",-27.55503,152.30144,0.85
"Amboseli National Park","National Park, NJ, United States",39.86583,-75.17981,0.6
"LN","Rua da Linha, 7570-329 Grândola, Portugal",38.21408,-8.55934,1.0
"Brehat","Rue de Bréhat, 78180 Montigny-le-Bretonneux, France",48.76853,2.01719,1.0
"Mantady","Mantada, Thotlavalluru, Andhra Pradesh, India",16.35726,80.86758,0.86
"Teotitlán del Valle","Teotitlán del Valle, Oax, Mexico",17.03007,-96.51933,1.0
"Santa Fe National Park","Sante Fe St, Hot Springs National Park, AR 71913, United States",34.46257,-93.09081,0.84
"Portugal Madeira Island","Madeira Island, Portugal",32.64693,-16.90854,1.0
"Pemba Is.","Pemba, Cabo Delgado, Mozambique",-12.96364,40.50007,0.71
"Canary Islands Cyrtosia","Canary Island, VIC 3537, Australia",-35.98962,143.86315,0.57
"Caliciaceae",
"Tahuna Road","Tahuna Rd, Te Hoe, Tahuna 3784, New Zealand",-37.51331,175.34413,1.0
"China Huangcaoling","China Village, ME, United States",44.48163,-69.51648,0.35
"Beaver Dam","Beaver Dam, WI, United States",43.45633,-88.83018,1.0
"Los Penasquitos Cr.","Rancho Penasquitos, San Diego, CA, United States",32.9616,-117.12846,0.62
"Apia","Apia, Samoa",-13.83688,-171.75673,1.0
"Apical Basin","Basin, WY, United States",44.38111,-108.04006,0.45
"Wolongia",
"Baleyskiy r-n","Baleyskiy pereulok, Baleyskiy rayon, Russia, 673450",51.58136,116.65242,0.82
"Lysasteriasjoffrei",
"Wadi Warayah","Wadi Wurayah, Khor Fakkan Town, United Arab Emirates",25.38329,56.30518,0.82
"G.K. Creighton","Creighton, PA, United States",40.58737,-79.77632,0.82
"Ankasa Reserve","Reserve, LA, United States",30.05651,-90.55168,0.54
"Baoxing","Pat Heung, New Territories, Hong Kong SAR",22.45207,114.09786,0.86
"Sonora Pass Road","Sonora Pass Rd, Vallejo, CA 94589, United States",38.14128,-122.25993,1.0
"Tucumán Road","Tucuman, Argentina",-26.82776,-65.21045,0.64
"Malinghe Gorge","Malingre, Les Combes, Bourgogne-Franche-Comte, France",47.03645,6.53948,0.46
"Mount Mou","Mount Morkel, Dihlabeng, Free State, South Africa",-28.6878,28.07632,0.87
"Mazamari","Mazamari, Junin, Peru",-11.32536,-74.52976,1.0
"Priabonian Rovno","Rivne, Ukraine",50.61926,26.25131,0.33
"Polystomoidesfuquesi",
"Maskame","Maskam Cres, Montague, 7460, South Africa",-33.88729,18.54395,0.86
"Commiphera","Chom Phra, Thailand",15.10547,103.59382,0.7
"Acanthoserolis",
"Falle","Fälle, Mönsterås, Kalmar County, Sweden",57.05663,16.40872,1.0
"Gruta Velha Nova","Rua Gruta, Ponto Chic, Nova Iguaçu - RJ, 26032-800, Brazil",-22.72535,-43.47197,0.64
"Umbrinacanosai",
"Lake Egirdir Basin","Basin Rd, Mirror Lake, NH 03853, United States",43.62298,-71.28057,0.56
"Dongtianyan Reservoir","Reservoir, Melbourne, VIC 3073, Australia",-37.70803,144.99944,0.45
"Garoet","Garet, Empurany, Auvergne-Rhone-Alpes, France",45.03337,4.5946,0.83
"Casera Malicuc","Calera, Zac, Mexico",22.94931,-102.70204,0.31
"Rio Jamundá","Rua Jacundá, Bangu, Rio de Janeiro - RJ, 21863-428, Brazil",-22.84446,-43.46889,0.8
"Utara Dumoga Bone National Park",
"Kräklingbo","Kräklingbo, Gotland County, Sweden",57.44539,18.70826,1.0
"El Horno","El Horno, Espinosa de los Monteros, Castilla and Leon, Spain",43.10172,-3.70157,1.0
"Human Unknown Unknown Unknown Unknown Unknown Unknown Macropus",
"Fennberg","Am Fennberg, 16244 Schorfheide, Germany",52.87321,13.64884,0.99
"Yahara River","E River Dr & Yahara Cir, De Pere, WI 54115, United States",44.44387,-88.02218,0.99
"Momtazi","Momtaz Street, Cairo, Cairo, Egypt",30.04811,31.25035,0.86
"Montersato","Salita Monterosato, 16133 Genoa GE, Italy",44.44203,8.99178,0.99
"Argentina Portuguesa","Rua de Argentina, Porto, Portugal",41.15848,-8.64646,0.95
"Pentaneurellakatterjokki",
"Metagovea","Maatgowa, Chhatarpur Sub-District, Madhya Pradesh, India",24.79807,79.47755,0.78
"Wadi Shawkah of Ras Al Khaimah Emirate","Wadi Shaam, Ras Al Khaimah, United Arab Emirates",26.03141,56.11471,0.83
"Bilukoppa","Bilukoppa, Narasimharajapura, Karnataka, India",13.3597,75.52083,1.0
"Alternariatenuissima",
"Elphinstone Island","Elphinstone, Mumbai, Maharashtra, India",19.00661,72.83201,0.88
"Tafilalt","Rue Tafilalt, Casablanca, Morocco",33.60292,-7.62577,0.99
"Epworth Sby.","Epworth, IA, United States",42.4453,-90.93086,0.7
"Huai Kaeo village","Teton Village, WY, United States",43.58752,-110.82737,0.6
"Chile Cuba Tropical America","Cuba, MO, United States",38.06319,-91.40363,0.38
"Simplexonema",
"Hydnocera sordida Gorham",
"Camarines Sur Prov.","Camarines Sur, Bicol Region, Philippines",13.55818,123.27299,0.75
"Zibrowius",
"Burkina","Burkina Faso",12.36857,-1.52711,1.0
"Takahashiina","Takahashi Rd, Goldendale, WA 98620, United States",45.68759,-120.80942,0.75
"Saloya River","South River, NJ, United States",40.45078,-74.38157,0.45
"Rangbong Valley","Rouge-Valley, Harrington, QC, Canada",45.91195,-74.65162,0.5
"Helavaaureipes",
"DB",
"Cazère","E Cazer Rd, De Valls Bluff, AR 72041, United States",34.80139,-91.43563,0.99
"Lizard Island Australia","Garden Island, WA 6168, Australia",-32.2252,115.68658,0.83
"Tibarama","Ibarama, RS, Brazil",-29.42186,-53.13075,0.88
"Teliankhevi","Telankhedi, Goregaon, Maharashtra, India",21.24734,80.25358,0.82
"Synoicumpererratum",
"Barnardi Groups",
"Dinggyê County","Huddinge, Stockholm County, Sweden",59.2349,17.97859,0.38
"Middle Brother State Forest","Middle Brother, NSW 2443, Australia",-31.69448,152.73381,0.54
"Aia","Anguilla",18.21537,-63.0517,1.0
"Inner Mongolia Chifeng",
"Bikini Atoll","Bikini Atoll Rd, Los Alamos, NM 87544, United States",35.87433,-106.32844,0.99
"Leucothoidea",
"Lozovy Klyuch Village","Village-Neuf, Grand Est, France",47.60537,7.57136,0.37
"Incanchaca","Inca Chaca, La Paz, Bolivia",-16.4253,-68.06008,0.9
"Karaganda Region","Mandalay Region, Myanmar",21.99271,96.10028,0.63
"Pharmacia",
"Urb",
"Gyeongsangnam Province","Province Sud, New Caledonia",-22.24293,166.46132,0.38
"Garman","Garman Road, London, N17 0, United Kingdom",51.60438,-0.05128,0.99
"Ehazoara Canyon","Canyon, TX, United States",34.9856,-101.93627,0.43
"Entomoscelis",
"Tshalciteli",
"Boesmanriviermond","Boesmansriviermond, Eastern Cape, South Africa",-33.68326,26.64885,0.99
"Tontunmäki","Tontunmäki, FI-02200 Espoo, Finland",60.17701,24.76936,1.0
"Monné","Monne, Le Vernet-Sainte-Marguerite, Auvergne-Rhone-Alpes, France",45.63004,2.9592,1.0
"Mt. Batilamu",
"Nikolajev","Mykolaiv, Ukraine",46.97336,31.98521,0.89
"Cycadophila abyssa Skelley",
"Mount Barry","Mount Barry, SA 5723, Australia",-28.23858,134.98184,1.0
"St. Crispins Reef","St Crispins Road, Norwich, United Kingdom",52.63542,1.29548,0.71
"Rio Marreco","Marreco",-22.9126,-43.2466,1.0
"Ardebil Rd.","Ardebil, Iran, Iran",38.24811,48.30476,0.78
"Arrowsmithiastyphelioides DC",
"Shule","Shule Rd, Nairobi, Kenya",-1.28716,36.87085,0.99
"Meangis Islands","South Islands, Cocos (Keeling) Islands",-12.19102,96.91135,0.57
"Kasongo-Banze","Kasongo, Maniema, Democratic Republic of the Congo",-4.43863,26.6662,0.58
"Exogonia Melichar","Exo Gonia, Thira, Notio Aigaio, Greece",36.38946,25.45846,0.5
"Lobrathiumquadrum",
"Fengxiangxi",
"Gonarezhou South Africa","Gonarezhou Ave, Etwatwa Ext 25, 1519, South Africa",-26.10483,28.46208,0.99
"S. Cristobal Island",
"Sanje village","Sanji",-26.1808,27.70354,0.92
"Mt. Tachibana-yama",
"El Llano Carti Rd","Llano Carti, El Llano, Panamá, Panama",9.28449,-78.97105,0.71
"Oaklands","Oaklands, Gauteng, South Africa",-26.14673,28.06401,1.0
"Tamasa","Tămasa, Cuzăplac, Romania",46.95022,23.18427,1.0
"Lysiphlebia",
"Malcata","Malcata, Sabugal, Portugal",40.30189,-7.07033,1.0
"Rodna mountains","Bunya Mountains, QLD 4405, Australia",-26.8822,151.51952,0.75
"Laiyuan",
"Sezela","Sezela, Kwazulu Natal, South Africa",-30.4053,30.68035,1.0
"Bururi National Forest","National Forest Park",47.81415,4.79164,0.7
"AR Ichetucknee Springs State Park",
"Siderophloiae",
"Sabzawaran","Sabzawaran, Iran, Iran",28.66525,57.73833,1.0
"Glyptapanteles",
"Royal Botanic Garden Edinburgh Herbarium","Royal Botanic Garden",55.96687,-3.20502,0.75
"Beşparmak Cave","Beşparmak Sokak, 34980, Çavuş, Şile, Turkiye",41.15455,29.61956,0.92
"Mamiwa-Kisara F.R.",
"Nychia","Nochia, 730 06 Kolymvari, Greece",35.50996,23.75544,0.67
"Cub River Canyon S of Thomas Spring","Canyon Ct, Hot Springs, SD 57747, United States",43.4168,-103.50215,0.57
"Wariaga","Wariga Rd, Glenorchy TAS 7010, Australia",-42.84507,147.26157,0.86
"Guiricoba","Guiricema, MG, Brazil",-21.00829,-42.71893,0.56
"ZHAO River","Croton Ln, Maddingley VIC 3340, Australia",-37.68238,144.41906,0.94
"Argentina Junín","Junín, Buenos Aires, Argentina",-34.58699,-60.94998,1.0
"Drnava","Drnava, Košický kraj, Slovakia",48.64,20.65108,1.0
"Noand","Nand Nagar, Fatehpuriya Doyam, Beawar, Rajasthan, India",26.1023,74.30768,0.8
"Chenguan District","Chen Zhuang, Gongguan Township, Miaoli County 363, Taiwan",24.52097,120.83519,0.37
"Ballistes Billberg","Billeberg, Sexdrega, Vastra Gotaland County, Sweden",57.57327,13.12871,0.47
"Neopodocinum",
"Stevens Creek","Stevens Creek, Bald Knob, AR, United States",35.37693,-91.61543,1.0
"Bosque de Lauraceas","Laura, Morgan, TX 76671, United States",32.01207,-97.60984,0.65
"Calf Creek","Calf Creek, Brady, TX, United States",30.98789,-99.46483,1.0
"Congo Mongende","Congo, PB, Brazil",-7.79101,-36.65859,0.38
"Rissoid",
"Arequipa","Arequipa, Peru",-16.40072,-71.53646,1.0
"Platystictidae",
"Llutuyo",
"Chikamauga Park","Park St, Chickamauga, GA 30707, United States",34.87243,-85.27088,0.99
"Kashgar Plain","Garden Plain, KS, United States",37.65814,-97.68395,0.79
"Vietnam Myanmar","Vietnam",21.02888,105.85463,0.5
"Hautakorpi","Rautakorpi, FI-41970 Keuruu, Finland",62.30342,25.03746,0.9
"Bells Island","Bell Island, Wabana, NL, Canada",47.62298,-52.94908,0.91
"Epidesmia","Calle Cristo de la Epidemia, 29013 Málaga (Málaga), Spain",36.73006,-4.41489,0.89
"Cruice Park Woodford","Cruice Dr, Woodford QLD 4514, Australia",-26.92816,152.75533,0.78
"Bassiadivaricata",
"Sorongjunkung","Jalan Sorong Jukung, Lombok Utara 83711, Indonesia",-8.35125,116.15249,0.92
"French Polynesia","French Polynesia",-17.54472,-149.57464,1.0
"Cañita River","Anita Rd, Lotus River, 7941, South Africa",-34.02629,18.50636,0.73
"Agnippe",
"Bangalore Urban","Urban",12.97128,77.62765,1.0
"Southern Highland","Southern Ave, Highland Park, TX 75209, United States",32.83574,-96.81466,0.99
"Oryzomyini",
"Jiare Village","Point Village, Charlotte, Saint Vincent and the Grenadines",13.36827,-61.13631,0.54
"Foara","Foara, Wouro Sidy, Matam, Senegal",14.75398,-13.10062,1.0
"Sains Malaysia","Universiti Sains Malaysia, Gelugor, Penang, Malaysia",5.35388,100.30248,0.99
"Kurchinskaya","Kurchanskaya ulitsa, Krasnodar, Russia, 350032",45.08934,39.07502,0.83
"Sangang Village","Gurgaon Village, Gurugram, Haryana, India",28.48636,77.01717,0.64
"Aldabil","Lieu-dit Aldabia, 64120 Larribar-Sorhapuru, France",43.28702,-0.98681,0.86
"JN Knull","Knüll, Bargstedt, Lower-Saxony, Germany",53.46701,9.44842,0.71
"Bamonkampu","Bamon Kampu, Singjamei, Imphal, Manipur, India",24.76194,93.97796,1.0
"Mexoleon","Lieu-dit Mézoléon, 22140 Cavan, France",48.69206,-3.35021,0.75
"San José de Feliciano","San José de Feliciano, Entre Rios, Argentina",-30.38551,-58.74961,1.0
"Mt. Mitchell","Mount Mitchell, NSW 2365, Australia",-29.93517,151.80507,1.0
"Tsherek Khulamsky River",
"East Aceh","Ace Rd E, Lake Worth Beach, FL 33467, United States",26.62065,-80.16526,0.88
"Lakadong","Lakatong Kel., Mangara Bombang, Takalar, Indonesia",-5.51421,119.44217,0.75
"Tschon-kemin Valley",
"Lake Chilwa basin Kachulu",
"Los Señales","Senales, Trentino-Alto Adige, Italy",46.70605,10.90972,0.7
"Mirabeau","Mirabeau, Provence-Alpes-Cote d'Azur, France",44.06266,6.09026,1.0
"Sangihé Island","Island 2, Dubai, United Arab Emirates",25.21986,55.23473,0.46
"Paladilhe","Rue Paladilhe, 34000 Montpellier, France",43.61211,3.86675,1.0
"Calosomascabrosumscabrosum",
"San Felipe Usila","San Felipe Usila, Oax, Mexico",17.88025,-96.52808,1.0
"Br. Guiana","Rua Guiana, Novo Horizonte, Teresina - PI, 64079-127, Brazil",-5.11238,-42.74938,1.0
"Minakuchi","Minakuchi, Joetsu-shi, Niigata, Japan",37.08941,138.13418,1.0
"Tissadourt",
"Roper Creek","Roper Creek Dr, Greenville, SC 29615, United States",34.84967,-82.31736,0.99
"Zuluapan","Prolongación Juluapan, 28989 Ciudad de Villa de Álvarez, Col, Mexico",19.27541,-103.74272,0.87
"Maramureș","Maramureș, Romania",47.65719,23.56597,1.0
"Nishimeya","Nishimeya-mura, Nakatsugaru-gun, Aomori, Japan",40.57757,140.29722,1.0
"Tunaima","Calle de Tunaima, 28033 Madrid (Madrid), Spain",40.47104,-3.63308,1.0
"Northern Peloponnesus","Northern, Sri Lanka",9.65878,80.01907,0.4
"Caishan","Cashan, North West, South Africa",-25.68504,27.24089,0.86
"Huangling","Huang Qi Lin, Shueili Township, Nantou County 553, Taiwan",23.80387,120.81661,0.83
"Gaviserri","Località Gaviserri, 52015 Pratovecchio Stia AR, Italy",43.82131,11.74452,1.0
"Trigonarca","Trigona Pl, Kambalda West WA 6442, Australia",-31.20626,121.61782,0.7
"Jackson Spring","Spring Dr, Jackson, GA 30233, United States",33.3576,-83.87865,0.99
"Algoa Dune Strandveld","Algoa St, Strandvale, 7140, South Africa",-34.09749,18.83972,0.63
"Lake Ozark","Lake Ozark, MO, United States",38.18029,-92.6227,1.0
"Mt. Memuro-dake","Memuro-cho, Kasai-gun, Hokkaido, Japan",42.91154,143.05083,0.5
"Mediterranean Red Sea Branchiomma",
"South Serbia","Serbia",44.8131,20.46329,0.55
"Wapoga Basin","Basin, WY, United States",44.38111,-108.04006,0.45
"Gunyah","Gunyah, VIC 3960, Australia",-38.53792,146.28351,1.0
"Litipo","Litopo St, Ratanda, 1441, South Africa",-26.54983,28.32844,0.67
"North-east Coast","N East Coast St, Lake Worth Beach, FL 33460, United States",26.64056,-80.05829,0.99
"Kwanda River Suswe","Wanda Ln, Haw River, NC 27258, United States",36.1082,-79.36296,0.56
"Euryphthiria",
"Clypeodytes",
"Kanthan Cave",
"Smolandia Sveciae","Simolândia, GO, Brazil",-14.46972,-46.48208,0.56
"Pismo State Beach","State Farm",35.13804,-120.62681,0.83
"Markham River Valley","River Valley Cres, Markham, ON L6C, Canada",43.89015,-79.36541,0.99
"Chondrostethus Kirby",
"Sierah Island","Iceland",64.14748,-21.93419,0.5
"Paggi","Paggi, Carasco, Liguria, Italy",44.35475,9.36432,1.0
"SAN",
"Myiagreutes",
"Triquet Island Macro",
"LYCOSIDAE Alopecosa",
"Peka Peka","Peka Peka, Waikanae, Wellington, New Zealand",-40.8336,175.0609,1.0
"Rivulets","Rivulet, Okhahlamba, Kwazulu Natal, South Africa",-28.82531,29.29426,0.88
"Işıklı","Işıklı, Silifke, Mersin, Turkiye",36.23459,33.68841,1.0
"Umbita","Umbita, Colombia",5.22118,-73.45726,1.0
"Hainan Subregion","Herning, Central Denmark Region, Denmark",56.13746,8.9761,0.67
"Chitinskaja Region","Chitinskaya ulitsa, Nikolaevsk-on-Amur, Russia, 682460",53.14358,140.70323,0.88
"Posaksa Keumsan",
"Physciaphaea",
"Paraplehniapacifica",
"High Island","High Island, TX, United States",29.562,-94.39458,1.0
"El Pochote","El Pochote, Tlaltizapán, Mor, Mexico",18.6652,-99.14809,1.0
"JAPONIA","Japan",35.69393,139.75371,1.0
"Cromna","Cromona, KY, United States",37.18211,-82.68864,0.99
"Maldive Is.","Maldive Isle Ct, Las Vegas, NV 89129, United States",36.23326,-115.29425,0.99
"Philippines Indonesia Indonesia Indonesia Brazil",
"Lanternfly","Lantern Fly Holw, Mississauga, ON L5W, Canada",43.63433,-79.73024,0.99
"Kalkva","Kalka, Haryana, India",30.83365,76.93602,0.83
"Cinclocoma","Cinco, São Bernardo do Campo, SP, Brazil",-23.78752,-46.53594,0.5
"Dumaresq River Pungalina Seven Emu Sanctuary",
"Maple Island","Maple Island, Jupiter, FL, United States",26.92542,-80.11443,1.0
"San Miguel Chimalapa","San Miguel Chimalapa, Oax, Mexico",16.71428,-94.74782,1.0
"NNE Hillsboro","Hillsboro, OR, United States",45.52268,-122.99044,0.75
"Para River","Para St, qathet, BC V0N, Canada",49.75719,-124.55585,0.83
"Shipwreck Bay","Shipwreck",30.1788,-85.80836,1.0
"Primorie Territory","Primor'e, Chastinskiy rayon, Volga Federal District, Russia",57.27125,54.96447,0.88
"Mt. Chunchuk",
"Guayamerín","Guayaramerín, Beni, Bolivia",-10.8268,-65.35373,0.95
"Ho Chi-Minh","Ho Chi Minh City, Vietnam",10.77641,106.7011,1.0
"Grande-Terre","Grande Terre, Brantôme en Périgord, Nouvelle-Aquitaine, France",45.36249,0.66582,1.0
"Lithophyllon",
"Pleuroloma","Loma, CO, United States",39.19826,-108.81295,0.4
"Tassarolo","Tassarolo, Piedmont, Italy",44.72591,8.76977,1.0
"Chitinskaya Region","Chitinskiy proezd, Barnaul, Russia, 656039",53.35238,83.70643,0.82
"Boutmas","Rue du Bout du Mas, 46090 Pradines, France",44.43814,1.37738,1.0
"FORSMAN","Forsman, Sandia Park, NM, United States",35.16847,-106.35741,1.0
"Wahnesia",
"Davies Ck","Davies, New York Mills, MN, United States",46.60052,-95.31375,0.75
"Orumana","Orumana, Sami, Gujarat, India",23.59843,71.90092,1.0
"West San Andreas","W San Andreas Ct, West Jordan, UT 84088, United States",40.5985,-111.95003,0.99
"Pagri Town",
"New Brunswick Museum","NB, Canada",45.96062,-66.63912,0.67
"Pezotmethis",
"Al-Bishriyya",
"Asinanyo River Forest Reserve","River Forest, IL, United States",41.8881,-87.81966,0.42
"Kremmling","Kremmling, CO, United States",40.05884,-106.38854,1.0
"Maeki","Mäkikuja, FI-10900 Hanko, Finland",59.83043,22.9689,0.99
"Antasibé","Andasibe, Moramanga, Madagascar",-18.95739,48.54567,0.75
"FZPC",
"Pinusstrobus",
"Massartellopsis",
"Shioya Bay","Shioya-gun, Tochigi, Japan",36.63104,139.98646,0.67
"Inpalizada Olancho","La Empalizada, Juticalpa, Honduras",14.69803,-86.17869,0.85
"Çemdinli","Şemdinli, Hakkari, Turkiye",37.30432,44.57359,0.87
"Hardwood Plains","Harwood Plains, Ottawa, ON, Canada",45.37826,-75.95463,0.93
"Oncideres","İncidere Sokak, 39010, Demirtaş, Kırklareli, Turkiye",41.7406,27.21937,0.89
"Clough Cave","Slough Cove Rd, Edgartown, MA 02539, United States",41.36145,-70.53067,0.7
"Wangdongyang Wetland","Wetland Park Rd, Tin Shui Wai, New Territories, Hong Kong SAR",22.46618,114.00546,0.71
"Polsko Kossovo","Polsko Kosovo, Byala, Bulgaria",43.42916,25.66904,0.92
"Nesobolus","Bolus, Caherciveen, Ireland",51.79464,-10.32424,0.56
"Tarumã-Mirim River","Rua Cajá-Mirim, Tarumã, Manaus - AM, 69041-265, Brazil",-3.01154,-60.0471,0.69
"Lipommata Wollaston","Wollaston, ON, Canada",44.86586,-77.82238,0.5
"Mwea","Mwea Ave, Etwatwa Ext 26, 1519, South Africa",-26.09586,28.45285,0.99
"Los Toxtlas","Calle Los Tuxtlas, Moderno, 91918 Veracruz, Ver, Mexico",19.17139,-96.13305,0.8
"Laurelia","Aurelia, IA, United States",42.71235,-95.43808,0.88
"Balanococcus",
"Green Hills","Green Hills, PA, United States",40.1245,-80.30553,1.0
"Suareztilla","José María Pino Suárez, Barrio Grande, 29915 Tila, Chis, Mexico",17.22667,-92.41703,0.9
"Pa Hin Ngam Nationa Park","Nahanni National Park Reserve",61.03903,-123.39153,0.57
"Kalkanlı Mts.","Kalkanlı, Morphou, Turkish Cypriot Administered Area",35.24488,33.03939,0.73
"Bos-Dagh Mountains","Mountain's Edge, Las Vegas, NV, United States",36.01965,-115.2613,0.56
"Garrido-Linares","Plaza Juanfra Garrido, 23700 Linares (Jaén), Spain",38.09724,-3.6281,1.0
"Owensburgh","Owensburg, IN, United States",38.92112,-86.72675,0.9
"Chiriaco Summit","Chiriaco Summit, Desert Center, CA, United States",33.6613,-115.72324,1.0
"Hong Cave","South Cave, Brough, England, United Kingdom",53.76871,-0.60029,0.5
"Waza National Park","National Park, NJ, United States",39.86583,-75.17981,0.75
"Aguazul","Aguazul, Colombia",5.17009,-72.54955,1.0
"Yantarnyi","Yantarny, Homyel'ski rayon, Homyel'skaya voblasts', Belarus",52.50102,30.99105,0.89
"Vumba Mountains Tanzania","Bunya Mountains, QLD 4405, Australia",-26.8822,151.51952,0.41
"OBOCK","Obock, Djibouti",11.96381,43.29124,1.0
"Olea chrysophylla",
"Atlantic Ocean","Atlantic Ocean, Atlantic City, NJ 08401, United States",39.3549,-74.43495,1.0
"Karwar","Karwar, Karnataka, India",14.81832,74.13453,1.0
"Las Peñitas","Las Peñitas, Santiago de Querétaro, Qro, Mexico",20.60736,-100.40493,1.0
"Viphya Plateau","Plateau, Nigeria",9.76622,8.8454,0.54
"Great Lake Onchotelson",
"Tolangi","Tolang, Chandi Bhanjyang, Narayani, Nepal",27.82272,84.60934,0.86
"Boulder Ck","Boulder, CO, United States",40.01574,-105.27924,0.78
"Cúneo","Cuneo, Piedmont, Italy",44.38822,7.54833,1.0
"Tsuyama City","Tsuyama-shi, Okayama, Japan",35.06919,134.00451,1.0
"Noorlangi Rock","Noorani, Pitumpe North, Western, Sri Lanka",6.85598,80.09643,0.54
"Chilocorellus Miyatake","Miyatake, Suruga-ku, Shizuoka-shi, Shizuoka, Japan",34.95265,138.41682,0.38
"Hualfia","Hualfin, Catamarca, Argentina",-27.22502,-66.83363,0.86
"Japón","Japan",35.69393,139.75371,1.0
"Lake Eppalock","Lake Eppalock, VIC 3551, Australia",-36.84798,144.52911,1.0
"Valdaeshna","Valdasna, Tondela, Portugal",40.59383,-8.22094,0.8
"Piabas River","South River, NJ, United States",40.45078,-74.38157,0.55
"Chelonibia","Cerrada Chelonia, Ixtapa Zihuatanejo, 40884 Zihuatanejo de Azueta, Gro, Mexico",17.66665,-101.59473,0.75
"Neuwoudtville","Nieuwoudtville, Northern Cape, South Africa",-31.37165,19.10978,0.99
"Ciceronia","Cicéron, Ribaute, Occitanie, France",43.10835,2.62072,0.78
"Gallo Springs","Gallo Ln, Hot Springs Village, AR 71909, United States",34.6563,-92.98039,0.92
"Panesar","Panesar Chowk, Phase 3, Shaheed Karnail Singh Nagar, Ludhiana 141013, India",30.87573,75.82428,0.99
"Mussandan Peninsula","Peninsula, OH, United States",41.24122,-81.54784,0.5
"Kwajelein","Kwajalein Dr, Colorado Springs, CO 80902, United States",38.72518,-104.7953,0.78
"Saubrigues","Saubrigues, Nouvelle-Aquitaine, France",43.61127,-1.31388,1.0
"Portugal Portugal","Portugal",38.72633,-9.14952,0.5
"Holtville","Holtville, CA, United States",32.81221,-115.3802,1.0
"Tremeti Islands","West Islands, Cocos (Keeling) Islands",-12.15772,96.82122,0.5
"Kuancheng County","Phra Nakhon Si Ayutthaya, Thailand",14.35071,100.58371,0.4
"Balaton Highland","Highland, IN, United States",41.55338,-87.44908,0.53
"Euryglossidia",
"Bopolu","Bopoli, Alibag Sub-District, Maharashtra, India",18.63918,72.99041,0.83
"Cardoria",
"SEDUC",
"St. Burchard","Burchardstraße, 39114 Magdeburg, Germany",52.11613,11.65908,0.99
"Shimano River","Shimane, Japan",35.46818,133.04853,0.5
"Tejaban","Calle Tejaban, Fraccionamiento El Pórtico, 76902 Corregidora, Qro, Mexico",20.54942,-100.4124,1.0
"Silverpeaks","Silver Peak, NV, United States",37.75261,-117.63648,0.91
"Sokaru","Sokaru, Setouchi-cho, Oshima-gun, Kagoshima, Japan",28.13708,129.35878,1.0
"Putao Town","Tagore Town, Prayagraj, Uttar Pradesh, India",25.45752,81.8632,0.72
"Atlântico","Atlantico, Colombia",10.98268,-74.8302,1.0
"Oligomyrmex",
"Burralow Swamp",
"Sumatrodexia",
"Krivodol","Krivodol, Bulgaria",43.37563,23.47976,1.0
"Chaerilustricostatus Pocock",
"Ampango","Ampang, Selangor, Malaysia",3.15785,101.75188,0.86
"Brooks Range Mountain","Brooks Range St, Las Vegas, NV 89129, United States",36.22478,-115.27085,0.92
"Greater Cape Floristic region",
"Burachek River","Elk River, MN, United States",45.30566,-93.57196,0.54
"Oklahoma County","County Rd, Harrah, OK 73045, United States",35.4897,-97.15904,0.99
"Kifisia","Kifisia, Attiki, Greece",38.08703,23.8004,1.0
"Piedra de la Virgen","Virgen de Lourdes, Canelones, Uruguay",-34.71517,-56.2074,0.75
"Yongshujiao",
"Pagurodes","Rodès, Occitanie, France",42.65699,2.56118,0.56
"Yarromere","Yarrowmere Rd, Pentland QLD 4816, Australia",-21.2711,145.74903,0.99
"Kompienga","Kompienga, Pama, Burkina Faso",11.24888,0.69677,1.0
"Albia Cave","La Cave",43.93335,2.16899,0.99
"Orca and Virgin Bay",
"Akonolinga","Akonolinga, Cameroon",3.77809,12.24773,1.0
"Australo-New Guinea","New Guinea Rd, W Tree VIC 3885, Australia",-37.35398,148.2647,0.91
"Kardzali","Kardzhali, Bulgaria",41.63872,25.37628,0.99
"Tshibambo","Tshibambo, Tshilenge, Kasaï Oriental, Democratic Republic of the Congo",-6.1124,23.4487,1.0
"Neophygopoda",
"Demirköy village","Demirköy, Kırklareli, Turkiye",41.8247,27.76932,0.56
"SanktPeterburg Region","Region",59.91229,30.34598,1.0
"Pavagadh","Pavagadh, Halol, Gujarat, India",22.46852,73.52425,1.0
"Dubrovitsa","Dubravitsa, Navahrudski rayon, Hrodzyenskaya voblasts', Belarus",53.68751,25.86972,1.0
"Neodavisia",
"Haipuaena","Puaena St, Kamuela, HI 96743, United States",20.01399,-155.67171,0.67
"Rasamsonia",
"Peltecoelus",
"Hyperxiphia Maa",
"Chinateca",
"Tamil Nadu India Myanmar","Tamil Nadu, India",13.08375,80.28255,0.67
"Brachypylina",
"Kirrakirrinna Waterhole","Waterhole, Fairview No 136, AB, Canada",55.99988,-118.4181,0.41
"Stenostoma","Sten Stora, SE-573 98 Tranås, Sweden",58.06786,14.69009,0.7
"Hesperophasmatinim",
"Neosillago marmorata","La Marmorata, Santa Teresa Gallura, Sardinia, Italy",41.24747,9.2328,0.55
"Pürgschachenmoor","Pürgschachen, 8904 Ardning, Austria",47.58577,14.3407,0.76
"Aratinga","Aratinga, São Francisco de Paula, RS, Brazil",-29.34248,-50.18475,1.0
"Karaağaç","Karaağaç, Kyrenia, Turkish Cypriot Administered Area",35.3207,33.55514,1.0
"Bristol Place Pk.","W Park Pl, Bristol, VT 05443, United States",44.13401,-73.07949,0.82
"Gulf of Mexico USA","Gulf, Hobbs, NM 88240, United States",32.51513,-103.2874,0.8
"Megachilealbisecta",
"Tergosmia","Mergoscia, Ticino, Switzerland",46.20871,8.8465,0.67
"Cotton Wash","Cotton Ct, Washington Twp, OH 45458, United States",39.60142,-84.18159,0.99
"Deutschlands Insekten","Germany",52.51604,13.37691,0.55
"Steindachneria",
"Jundiaí USA","Jundiaí, SP, Brazil",-23.18807,-46.89115,0.7
"Starodubskoe village","Starodubskoe, Budyonnovskiy rayon, North Caucasian Federal District, Russia",44.55465,44.01641,0.63
"Palaeogadus",
"Acalanes Valley","Star Alterations",40.69545,-111.95507,0.86
"Brattegard","Brattegard, Ål, Viken, Norway",60.69793,8.36598,1.0
"Trapezia integra Latreille","Latreille, Saint-Hilaire-Peyroux, Nouvelle-Aquitaine, France",45.22298,1.63291,0.38
"Eungella Dam","Eungella Dam, Eungella, QLD 4757, Australia",-21.14379,148.37757,1.0
"Guberlya Railway Station","Railway Station Area, Balaji Nagar, Vizianagaram, Andhra Pradesh, India",18.11232,83.39681,0.64
"Chenxi Xian","Huyện Trần Đề, Vietnam",9.54094,106.02511,0.8
"Finca La Selva","La Selva, Atotonilco El Alto, Jal, Mexico",20.54539,-102.52402,0.58
"Mishmi Hill",
"Sharasargus",
"Tridensius","Tridens Ct, Austin, TX 78750, United States",30.43602,-97.78064,0.7
"Aclopus",
"Bergbambos","Rua dos Bergamos, Araporã - MG, 38435-000, Brazil",-18.43259,-49.18733,0.8
"Western Kazakhstan","Kazakhstan",51.12771,71.4283,0.59
"Kowie","Kowie, Ciasna, Silesian Voivodeship, Poland",50.84386,18.58627,1.0
"Shodokutsu",
"Derka","Derka, Doda, Jammu & Kashmir, India",33.03909,75.59745,1.0
"Kalemyo","Kalemyo, Kale, Sagaing Region, Myanmar",23.18716,94.06114,1.0
"Helconichia",
"Austral Archipelago","Archipelago Trl, Austin, TX 78717, United States",30.48845,-97.72771,0.81
"Neomaenas",
"Palmetto Avenue","Palmetto Ave, Pacifica, CA 94044, United States",37.64638,-122.49192,1.0
"Indo-West Pacific 27","Pacific",28.64289,77.10733,0.88
"Araneomorphae",
"Geelvink","Geelvinckstraat, Castricum, Netherlands",52.54921,4.65938,0.99
"Epobeidia",
"Limnaeasolidulus",
"Paepke","Paepkestraße, 83435 Bad Reichenhall, Germany",47.73065,12.87763,0.99
"Baschelakskii Range",
"Sabatinca","Sabatina, Campagnatico, Tuscany, Italy",42.80423,11.30366,0.89
"Palpomyia oliveirai Lane Palpomyiaoliveirai Lane",
"Red Sea Kenya","Kenya St & Red Sea St, Chief A Luthuli Park Ext 1, 1501, South Africa",-26.16241,28.37955,0.99
"Żyła",
"Wmsville",
"San Cristóbal Las Casas","San Cristóbal de las Casas, Chis, Mexico",16.73159,-92.64229,0.97
"Tateiwakomenono","Tateiwakomenono, Matsuyama-shi, Ehime, Japan",33.97695,132.86732,1.0
"Dendroaspis",
"Mount of Portofino","Portofino, Liguria, Italy",44.30439,9.2071,0.56
"Terceira Isl.","Terceira Island, Portugal",38.65583,-27.22105,0.99
"Monodontium Kulczyński",
"Breidenbaugh","Breidenbaugh Ln, Glen Arm, MD 21057, United States",39.46022,-76.52036,0.99
"Koala","Koala, Dioila, Mali",12.81179,-6.65678,1.0
"Stylaraea","Laraia, Chauparan, Jharkhand, India",24.34081,85.25594,0.56
"Centro-Sapucaia","Centro, Sapucaia do Sul, RS, Brazil",-29.82422,-51.15177,0.99
"Jharbari Forest Range","Forest Range, SA 5139, Australia",-34.93686,138.79316,0.58
"Sadong River East Malaysia","Sayong, Perak, Malaysia",4.77553,100.95884,0.52
"Latin America Widespread Antilles",
"Bograta Mt.","Bogata, Romania",46.46167,24.11798,0.67
"Aonla","Aonla, Uttar Pradesh, India",28.27783,79.15918,1.0
"Cerro de las Antenas","Cerro de Casa, Veraguas, Panama",8.11136,-81.56835,0.53
"Barang Lompo","Jalan Barang Lompo, Makassar 90171, Indonesia",-5.12108,119.41411,1.0
"Stony Pass","Stoney Pass, Bray, Ireland",53.10515,-6.21887,0.99
"Amedegnatiana",
"Ruamahua-nui Island","Island Park, NY, United States",40.60124,-73.65588,0.35
"Los Tigres","Los Tigres, Chaco, Argentina",-25.24218,-62.80093,1.0
"Islandici","Iceland",64.14748,-21.93419,0.89
"Rt 101","RT-101, Port Washington, NY 11050, United States",40.80913,-73.67473,1.0
"736pp",
"Telmen Soum","Telmen, Mongolia",48.79207,97.66542,0.6
"Rollard","Rollard, Noyal-Châtillon-sur-Seiche, Brittany, France",48.03135,-1.63399,1.0
"Salixalaxensis",
"USA USNM-1389848 USNM Massachusetts","MA, United States",42.35866,-71.05675,0.52
"Timbavati","Timbavati, Mpumalanga, South Africa",-24.57447,31.33451,1.0
"Argentinean Andes","Vereda La Argentina, 056067 Andes, Colombia",5.67816,-75.83785,0.87
"Mary Ann Falls","Mary Ann Falls Rd, Victoria, NS B0C, Canada",46.73655,-60.3599,0.99
"Sterculiaccea",
"Formosiepyris",
"Kabir-Kuh","Kabir, United Arab Emirates",25.4244,55.70115,0.63
"Chascca","Rua da Chasca, 5000-751 Vila Real, Portugal",41.29877,-7.67528,0.86
"San Ambrosio Islands","San Ambrosio, Igbaras, Western Visayas, Philippines",10.71532,122.25562,0.61
"Veselye Bokovenki","Veseli Bokovenky, Dolynskyi raion, Ukraine",48.21497,32.85363,0.87
"Motobu Peninsula","Peninsula, OH, United States",41.24122,-81.54784,0.6
"Istranca","Istrana, Veneto, Italy",45.68155,12.10358,0.87
"Bay-Tayginsky District",
"Loranthaceae",
"Cariania","Via Cariani, 40054 Budrio BO, Italy",44.58869,11.56339,0.88
"Beach Bay","South Beach, San Francisco, CA, United States",37.7863,-122.39269,0.94
"Science Museum of Minnesota",
"Brazil Guanajuato","Calle Brazil, Fraccionamiento Guanajuato, 37803 Dolores Hidalgo, Gto, Mexico",21.16993,-100.9253,1.0
"Luciliasericata",
"Shoal Creek","Shoal Creek, Ocoee, FL, United States",28.56047,-81.533,1.0
"Anan’evka River","Anan'yewka, Byalynitski rayon, Mahilyowskaya voblasts', Belarus",53.85218,29.63466,0.57
"Temucus","Temukus Kel., Banjar, Buleleng, Indonesia",-8.16833,115.00802,0.71
"Tavara","Tawra, Jayal, Rajasthan, India",27.37163,74.07855,1.0
"Hassaniya Arabic",
"Winton","Winton, Southland, New Zealand",-46.14254,168.32494,1.0
"Pentland","Pentland, QLD 4816, Australia",-20.52447,145.3988,1.0
"Weirton","Weirton, WV, United States",40.41871,-80.58948,1.0
"Laguna Teno","La Laguna, 3360000 Teno, Maule, Chile",-34.95164,-70.98486,1.0
"Tobeatic Lake","Lake City, FL, United States",30.19052,-82.63712,0.33
"Mexican Federal Highway 175","175 N Federal Hwy, Boca Raton, FL 33432-3921, United States",26.35202,-80.08697,0.75
"Bajada del Agrio","Bajada del Agrio, Neuquen, Argentina",-38.40758,-70.03158,1.0
"Trinidad Mt.","Rua Trinidad, Novo Terceiro, Cuiabá - MT, 78028-320, Brazil",-15.61361,-56.135,1.0
"Lake Bondi","NW Bond Ct, Lake City, FL 32055, United States",30.32415,-82.6296,0.89
"Palermo Australia","Via Australia, 90044 Carini PA, Italy",38.18105,13.14223,1.0
"Mitophyllus",
"Eleotrispisonis",
"Barranqueras","Barranqueras, Chaco, Argentina",-27.48976,-58.94294,1.0
"Lake Ellen","Ellen Ln, Side Lake, MN 55781, United States",47.63563,-93.05874,0.99
"Shamvura Camp Namibia",
"Armero","Armero, Ibague, Colombia",4.44141,-75.17589,1.0
"Taurhina","Taurina, Jiquilpan de Juárez, Mich, Mexico",19.98589,-102.7048,0.87
"Praia Emilia","Località Braia, 43021 Corniglio PR, Italy",44.49489,10.07529,0.91
"Segnez River","South River, NJ, United States",40.45078,-74.38157,0.45
"Bioreserva Karadya","Reserva, PR, Brazil",-24.64848,-50.84626,0.41
"Sierra Leone Austerocardiochiles",
"Black Sea Northern coast","Black St, Leeuwenhof, 8760, South Africa",-30.6608,24.02315,0.69
"California Great Central Valley","Central Valley, Shasta Lake, CA, United States",40.68054,-122.36611,0.82
"Mbalmayo District",
"Near Litvintsevo","Litvintsevo, Kalininskiy rayon, Central Federal District, Russia",56.85297,36.42792,0.73
"Morzyczyn","Morzyczyn, Kobylanka, West Pomeranian Voivodeship, Poland",53.35306,14.91689,1.0
"Lake Amelia","Amelia Ct, Grayslake, IL 60030, United States",42.35542,-88.02574,0.99
"Koseda","Koseda, Lagam, Bheri, Nepal",28.89358,81.11697,1.0
"São Valério","São Valério do Sul, RS, Brazil",-27.78917,-53.93816,0.99
"Guilford County","Gilford, Craigavon, Northern Ireland, United Kingdom",54.37343,-6.35945,0.93
"Sternostylidae",
"Paraguay Ecuador Colombia","Colombia & Ecuador, 2610 Villa Elisa, Paraguay",-25.36678,-57.58582,1.0
"Oświecim","Oświęcim, Lesser Poland Voivodeship, Poland",50.03867,19.25285,1.0
"K.-T. Park",
"Marshall Ids.","Marshall, TX, United States",32.54691,-94.35011,0.73
"Metasoma",
"Chernihiv","Chernihiv, Ukraine",51.49369,31.29441,1.0
"Qiantang-Jiang","Tiền Giang, Vietnam",10.3665,106.37011,0.61
"Filyos River","South River, NJ, United States",40.45078,-74.38157,0.55
"China Sagarmatha","Sagarmatha, Nepal",26.5402,86.74859,0.67
"Libonectes","Calle de los Limonetes, 06195 Badajoz (Badajoz), Spain",38.904,-6.81877,0.7
"Mount Erica","Eric Way, Rocky Mount, NC 27803, United States",35.93366,-77.87938,0.99
"Hwy 1","HWY-1, Calgary, AB T3B, Canada",51.06699,-114.09087,1.0
"Bismark Strait","Bismark, Limpopo, South Africa",-24.20532,30.49888,0.54
"El Medio","El Medio, Grado, Principality of Asturias, Spain",43.33883,-6.02471,1.0
"Hilgendorf","Hilgendorf, Upahl, Mecklenburg-Vorpommern, Germany",53.85122,11.26335,1.0
"Leiopus Audinet-Serville","Serville, Centre-Val de Loire, France",48.76834,1.48497,0.36
"Sangkhla","Sangkha, Thailand",14.65169,103.85767,0.87
"Orlandin","Rua Luiz Orlandin, Mombuca - SP, 13380-000, Brazil",-22.93158,-47.56074,0.99
"Dzhungaria Region","Los Lagos, Chile",-41.47205,-72.9383,0.37
"Chozhiacodu","Chozhiyacode, Pathanapuram, Kerala, India",8.85247,77.03502,0.91
"Glogan","Logan, UT, United States",41.73691,-111.83482,0.83
"Paradoxecia","Paradox, NY, United States",43.89047,-73.64414,0.64
"Big Cove","Big Cove Kent, Weldford, NB, Canada",46.58573,-64.98594,0.99
"Habroteleia Kieffer","Kieffer, Crawley, WV, United States",37.93896,-80.62155,0.39
"Northwest Atlantic Ocean","W Atlantic Blvd, Ocean City, NJ 08226, United States",39.29322,-74.56126,0.77
"Sierra Mixe","Sierra Mixe, La Radio Benito Juárez, 53798 Naucalpan de Juárez, Edomex, Mexico",19.43509,-99.26277,1.0
"Njunjes",
"Greeland","Greenland, Greenland",64.17942,-51.72924,0.99
"Anurak Community Lodge Resort",
"Kotayk province","Province Sud, New Caledonia",-22.24293,166.46132,0.57
"Wadi Shahdan",
"Sphinx Head","Sphinx, Gardiner, MT, United States",45.17273,-110.87841,0.6
"Dizhenggang","Senggang, Perak, Malaysia",4.63552,100.88735,0.64
"Aproceros East Palaearctic",
"ulkei Gordon","Gordon, VIC 3345, Australia",-37.58079,144.10432,0.55
"Polyanthea","Rua Polyanthea, Jaçanã, Sao Paulo - SP, 02280-080, Brazil",-23.4549,-46.57566,1.0
"Anthelidae","Calle Particular Hotel Anthelia Park, 38660 Adeje (Santa Cruz de Tenerife), Spain",28.09,-16.73996,0.8
"Ngapara","Ngapara, Oamaru, Otago, New Zealand",-44.94849,170.7505,1.0
"Dry Creek Valley","Dry Creek Rd, Garden Valley, ID 83622, United States",44.16617,-115.97251,0.93
"Eobathynella",
"Hongqi Village","Hond Village, Chikhli, Gujarat, India",20.74314,73.03896,0.73
"Angara River","River View Resort",12.91782,74.82419,0.91
"Volcán Poás National Park","Volcano, Hawaii National Park, HI, United States",19.42371,-155.2116,0.75
"Chahtut","Rue du Chahut, 77640 Jouarre, France",48.93969,3.15387,0.86
"Eckelsheim","Eckelsheim, Rhineland-Palatinate, Germany",49.79435,7.98362,1.0
"Horsehoe Reef","Horsehoe Lane, Bristol, BS35 2, United Kingdom",51.60764,-2.52437,0.67
"Minckley Ponds","Hinckley, England, United Kingdom",52.54243,-1.37272,0.54
"Boca Chica","Boca Chica, Dominican Republic",18.45401,-69.60558,1.0
"MICRODRAPETES Arnold","Arnold, MO, United States",38.42338,-90.37522,0.32
"Cacak","Cacak, Centralna Srbija, Serbia",43.88048,20.32976,1.0
"White Lodge","White Lodge, London, SE19 3, United Kingdom",51.41718,-0.10413,1.0
"Neotrombicula",
"Sinochlora",
"Shienchiyen","Skien, Vestfold og Telemark, Norway",59.20921,9.60858,0.82
"Latrielle","Latreille, Saint-Hilaire-Peyroux, Nouvelle-Aquitaine, France",45.22298,1.63291,0.89
"Biforina",
"R. O. Korea","South Korea",37.55886,126.99989,0.71
"Gunlock Reservoir","Reservoir, Melbourne, VIC 3073, Australia",-37.70803,144.99944,0.56
"Microgramma",
"Likouala aux Herbes",
"Moussoniabarkeri",
"Husavik","Húsavík, Sandoyar, Faroe Islands",61.80989,-6.68118,1.0
"Hundred Islands","100 Islands Cswy, Beaufort, SC 29907-1710, United States",32.39137,-80.65929,0.99
"Kankonde Rock","Kankondo, Lilongwe, Malawi",-13.8134,33.53448,0.58
"Germany Bavaria","Bavaria, Germany",48.13641,11.57754,1.0
"Bellenden Ker Landing [-17.3","Bellenden Ker, QLD 4871, Australia",-17.27156,145.91994,0.55
"Maryut District","Marut, Sarran, Nouvelle-Aquitaine, France",45.39415,1.9311,0.36
"San Pablo de Pitza","San Pablo, CA, United States",37.96033,-122.34239,0.53
"Pleurotomaria calosoma Laube",
"Leldee village","Village-Neuf, Grand Est, France",47.60537,7.57136,0.54
"Barail Hill Range","Claragh Hill Grange, Coleraine, BT51 5, United Kingdom",54.95572,-6.5605,0.67
"St. Paul","St Paul, MN, United States",44.94339,-93.09648,1.0
"Southeastern Costa Rica",
"Rio Iraí","Rua Iraí de Minas, Bangu, Rio de Janeiro - RJ, 21825-220, Brazil",-22.88967,-43.46515,1.0
"China Gutan River","River Hill Dr, China Twp, MI 48054, United States",42.76725,-82.54392,0.67
"Bangpakong R. USA","Bang Pakong, Thailand",13.50446,100.98983,0.71
"Ulocymus",
"Kuzedeevo","Kuzedeevo, Novokuznetskiy rayon, Siberian Federal District, Russia",53.32672,87.14256,1.0
"Indascia",
"Hulla District",
"Pampanga Province","Pampanga, Central Luzon, Philippines",15.06143,120.65494,0.5
"Southeastern U.S.","Southeastern, Clayton, GA 30525, United States",34.81707,-83.31737,1.0
"Hibli","Hubli, Aland, Karnataka, India",17.58589,76.51255,0.8
"So. Calif",
"Japonês Lake 11","Rua do Japonês, 11, Passarinho, Recife - PE, 52390-060, Brazil",-7.98541,-34.9289,0.69
"Limosia","Limosa St, Aroona QLD 4551, Australia",-26.78014,153.1184,0.86
"Taremarivara",
"Silhouettea","Silhouette Way, Western Heights, Hamilton 3200, New Zealand",-37.787,175.23103,0.99
"S. Lake Istokpoga","South Lake, SK, Canada",50.67922,-105.56335,0.36
"Chengdu, Sichuan Province","Tianfu",48.87433,2.33045,0.73
"Bozaigyrkum Sands","Sands, Sandoyar, Faroe Islands",61.8337,-6.81717,0.31
"Bieszczady Mts","ulica Bieszczady, Poznan, Poland",52.43554,16.84916,0.77
"TABATINGA","Tabatinga, SP, Brazil",-21.73404,-48.68792,1.0
"North Wells","North St, Wells, ME 04090, United States",43.29212,-70.58809,0.99
"Foam Creek","Foam Creek, Falkland Islands, Falkland Islands",-51.46182,-58.3108,1.0
"Kapuas Hulu Regency","Kapuas Hulu, Indonesia",0.81763,112.82859,0.59
"Passiflorabiflora",
"Rašelinisko",
"Beuern","Beuern, Buseck, Hesse, Germany",50.62768,8.82283,1.0
"Lake James","Lake James, Lakeland, FL, United States",28.14978,-81.9955,1.0
"Mpio Valle Nacional San Mateo Yetla","San Mateo Yetla, San Juan Bautista Valle Nacional, Oax, Mexico",17.75455,-96.31394,0.82
"Chornohory Mountain Massif","Mountain Rd, Massie QLD 4370, Australia",-28.12868,151.87916,0.54
"Salomonia Lallemand","Cité Lallemand, 6600 Bastogne, Belgium",50.00632,5.71512,0.8
"Rio Don Diego","Don Diego",-22.82769,-43.32294,1.0
"Crystal Cave Canyon","Crystal View Ln, Caldwell, ID 83607, United States",43.70566,-116.67115,0.88
"Troditissa","Odos Trooditissas, 2222 Latsia, Cyprus",35.11287,33.38373,0.99
"Heteromysoidessongkhlaensis",
"Logarska dolina","Logarska Dolina, Solčava, Slovenia",46.41826,14.63391,1.0
"Babadağ Distr.","Babadag, Romania",44.8906,28.71386,0.58
"Haikow","Haikkoo, Porvoo, South Finland, Finland",60.34442,25.61899,0.83
"Sourabaya","Surabaya, Indonesia",-7.26419,112.73615,0.89
"Healesville","Healesville, VIC 3777, Australia",-37.65193,145.52147,1.0
"Blennidus",
"Cañon Rio Quindio",
"Kodiak Alaska","Kodiak, AK, United States",57.79517,-152.39469,1.0
"Pravaya Bureya","Burya, Ziminskiy rayon, Siberian Federal District, Russia",54.27535,102.28968,0.38
"Belle Glade Road","Belle Glade Rd, Pahokee, FL 33476, United States",26.80194,-80.65335,1.0
"Lilyfield","Lilyfield, Sydney, NSW 2040, Australia",-33.87379,151.16244,1.0
"Tbilisskaja","Tbilisskaya, Karagandy, Kazakhstan",49.87919,72.99661,0.82
"Hatila Plateau 35",
"Zygopini",
"River Umhlasine","South River, NJ, United States",40.45078,-74.38157,0.36
"Maro Reef","Mar Reef Cv, San Diego, CA 92154, United States",32.57059,-117.01203,0.87
"Rio Tapirapé","Rua Tapirapé, Rio de Janeiro - RJ, 20975-140, Brazil",-22.88924,-43.2528,1.0
"Family Park","Family Park, Na Pa, Chon Buri, Chon Buri 20000, Thailand",13.39231,101.02925,1.0
"Ingram","Ingram, TX, United States",30.07512,-99.23851,1.0
"Apteropeda",
"Río Estero","Calle Río Évora, Estero, 82010 Mazatlán, Sin, Mexico",23.22673,-106.41826,1.0
"Leprariaxanthina",
"Layo District","Layo, Bulusan, Bicol Region, Philippines",12.74634,124.12558,0.33
"Bachkovo Monastery",
"Lamar Valley","Valley View Rd, Lamar, CO 81052, United States",38.06272,-102.60861,0.99
"Kumanonada",
"Bozorgi",
"Ibiocoara","Ibicoara, BA, Brazil",-13.40845,-41.28392,0.89
"Cayman Islands USA","Cayman Islands",19.29657,-81.38176,0.81
"Isla Lobos","Isla de los Lobos, 9410 Ushuaia, Argentina",-54.7975,-68.31278,1.0
"Anisotoma",
"Danzha village","West Village, New York, NY, United States",40.73497,-74.00483,0.54
"Enoplica",
"Siruvani Hill Range","Range Rd, Hill, NH 03243, United States",43.51259,-71.77405,0.53
"Continental America","Calle América, Continental, 31106 Chihuahua, Chih, Mexico",28.68243,-106.08401,1.0
"Samhoeri",
"Nieuwoudtville Renosterveld Shale","Nieuwoudtville, Northern Cape, South Africa",-31.37165,19.10978,0.45
"Loxahatchee","Loxahatchee, FL, United States",26.68372,-80.30971,1.0
"Tuskegee State Park","Park Rd, Tuskegee, AL 36083, United States",32.39081,-85.74489,0.71
"La Línea","La Línea de la Concepción, Andalucia, Spain",36.16829,-5.34111,1.0
"Acanthaclisis",
"Ellison Park","Ellison Park, Haines City, FL, United States",28.11333,-81.56499,1.0
"Mt. Sontra","Sontra, Hesse, Germany",51.06896,9.93314,0.75
"Flora og Fauna","Flora SNT, Lomonosovskiy rayon, Russia",59.83636,29.74372,0.83
"Wittenoom Road","Wittenoom Rd, High Wycombe WA 6057, Australia",-31.93844,115.99656,1.0
"Melinopteryx",
"Latonopsis","Catonoposis Rd, Annapolis, CA 95412, United States",38.71104,-123.31902,0.9
"Curacoa Islands","West Islands, Cocos (Keeling) Islands",-12.15772,96.82122,0.5
"Baryancistrusbeggini",
"north west Tien Shan","North West, South Africa",-25.86371,25.64641,0.53
"Baidunzi",
"Germany Queensland Museum","Museum Dr, Oakey QLD 4401, Australia",-27.42001,151.74449,0.7
"Gorno Belovo","Belovo, Siberian Federal District, Russia",54.41952,86.30772,0.55
"Jalapão State Park","State Park, SC, United States",34.09151,-80.96557,0.56
"Dianbai County","Dalarna County, Sweden",60.60442,15.62938,0.69
"Valls","Valls, Catalonia, Spain",41.2871,1.25244,1.0
"Jixian","Huyện Phù Cát, Vietnam",14.00134,109.05929,0.99
"MacFarlane Brook","MacFarlane, QLD 4478, Australia",-24.83448,146.17046,0.67
"Kunsia",
"Sabaneta Brasa Oman","Sabaneta de las Palomas, Puñal, Dominican Republic",19.42784,-70.65126,0.7
"Oreonectes","Carrer de les Orenetes, 08458 Sant Pere de Vilamajor (Barcelona), Spain",41.68954,2.37125,0.8
"Ilha de Itamaracá","Ilha de Itamaracá, PE, Brazil",-7.7488,-34.82473,1.0
"Cerithioidea",
"Jinhouling","Turin, Piedmont, Italy",45.06235,7.67993,0.5
"Suchitepéq.",
"Lutzville","Lutzville, Western Cape, South Africa",-31.55634,18.34623,1.0
"Golestãn",
"Bigelow Lakes Road","Bigelow Lakes Rd, Cave Junction, OR 97523, United States",42.1198,-123.3739,1.0
"Paracellaria","Plaça de la Parcel.lària, 17176 La Vall d'en Bas (Girona), Spain",42.11813,2.45701,0.92
"Mirleft","Mirleft, Guelmim - Oued Noun, Morocco",29.57936,-10.03524,1.0
"Katsushika","Katsushika-ku, Tokyo, Japan",35.74345,139.84723,1.0
"Paraguai River","Paraguay",-25.29738,-57.62776,0.62
"Forbesomyiini",
"Tropical North Coast","Tropical Dr, Nerang QLD 4211, Australia",-27.9969,153.34395,0.64
"Pendarini","Résidence Pendariès, 12200 Villefranche-de-Rouergue, France",44.35332,2.04039,0.72
"Guaritico","Guarico, Venezuela",9.90493,-67.35539,0.72
"Analamay-Mantadia","Mantada, Thotlavalluru, Andhra Pradesh, India",16.35726,80.86758,0.44
"Obhur creek",
"Kyokpo","Kyoko Ct, Las Vegas, NV 89118, United States",36.0622,-115.20096,0.83
"Pantai Merah","Pantai Pl, Tanah Merah QLD 4128, Australia",-27.68339,153.17794,0.82
"North Lakhimpur","North Lakhimpur, Assam, India",27.2287,94.0947,1.0
"KHABAROVSK","Khabarovsk, Far Eastern Federal District, Russia",48.50917,135.07437,1.0
"Little Colorado River Basin","Little River, VIC 3211, Australia",-37.96175,144.50652,0.31
"Paramo Laguna Negra","Laguna Negra, Paz de Ariporo, Colombia",5.89178,-71.92401,0.65
"Madagascar Madagascar","Madagascar",-18.91004,47.52736,0.5
"Thailand Doi Suthep","Suthep, Chiang Mai, Thailand",18.79025,98.96283,0.82
"Ewart Creek","Ewart Creek Rd, Okanagan-Similkameen, BC V0X, Canada",49.15382,-120.01584,0.99
"Guarinó River","Guarino Dr, White River Junction, VT 05001, United States",43.67247,-72.31397,0.92
"Megamoera",
"Guadalopebathynella",
"Macrostigmatea",
"Canaçari Lake","Rua Canacari, Foz do Iguaçu - PR, 85862-437, Brazil",-25.48231,-54.50912,0.67
"Rio Arirará","Rara",-22.98311,-43.1907,0.7
"West Tennessee",
"Gorrones","Camino Los Gorrones, 38632 San Miguel de Abona (Santa Cruz de Tenerife), Spain",28.04101,-16.63818,1.0
"Muang District Kud Kamheng",
"Etang Town","Togo-cho, Aichi-gun, Aichi, Japan",35.09682,137.05259,0.55
"Uryum River","South River, NJ, United States",40.45078,-74.38157,0.5
"Bahía de Jiquilisco","Jiquilisco, El Salvador",13.32965,-88.5675,0.59
"Toanya","Tonya, Trabzon, Turkiye",40.88651,39.28998,0.83
"Israel South Red Sea Exped","Southern Red Sea, Eritrea",13.62556,41.69823,0.45
"Buethobius",
"Daxue Shan Mountain","Mountain Camp, QLD 4355, Australia",-27.21482,152.0585,0.47
"Sława Lake","Sława, Lubusz Voivodeship, Poland",51.87825,16.07116,0.56
"Magnisia","Magnisia, Thessalia, Greece",39.37415,22.95779,1.0
"St. Rör","Royer, Saint-Auvent, Nouvelle-Aquitaine, France",45.82647,0.92191,0.67
"Santa Maria da Vitória","Santa Maria da Vitória, BA, Brazil",-13.38189,-44.20677,1.0
"Upper Richmond","Upper Ham Road, Richmond, TW10 5, United Kingdom",51.43284,-0.30664,0.92
"Kathu Waterfall","Waterfall Bay",7.93277,98.263,0.99
"Togo-Volta Highlands","Highlands, Tobago, Trinidad and Tobago",11.23982,-60.71686,0.69
"Xingxian","Huyện Nghĩa Hưng, Vietnam",20.2169,106.1812,0.99
"Midwest Region","Western Visayas, Philippines",10.84168,122.64975,0.46
"Zhejinag",
"Ammothea ovatoides Stock California",
"Abaligeti Cave","Abaligeti út, Pecs 7635, Hungary",46.09388,18.18549,0.69
"Chaingmai","Chiang Mai, Thailand",18.767,99.02616,0.89
"Pternohyla",
"Mbulu Mts.",
"Crytoptympanini",
"Rosalie Bay Road","Rosalie Bay Rd, Great Barrier Island 0991, New Zealand",-36.30729,175.50967,1.0
"South Tongue River","South Tongu, Ghana",5.96745,0.63335,0.63
"Chikubetsu","Chikubetsu, Haboro-cho, Tomamae-gun, Hokkaido, Japan",44.4306,141.75093,1.0
"Walckenaer","Avenue Walkanaer, 06100 Nice, France",43.71988,7.26124,0.7
"Reihoku Town","Reihoku-machi, Amakusa-gun, Kumamoto, Japan",32.5132,130.05491,1.0
"Pseudotritia",
"Pogonocaudina",
"Kurile-Sakhalin","Kuril'sk, Kuril'skiy rayon, Far Eastern Federal District, Russia",45.22471,147.88318,0.86
"Mumbo Island","Iceland",64.14748,-21.93419,0.55
"Khemarat","Khemarat, Thailand",16.04771,105.17367,1.0
"Near Nalan Neua Village","Beau Village, Rouillé, Nouvelle-Aquitaine, France",46.42028,-0.00576,0.45
"Atlantic coastal Strip",
"Pacalpard","Payalpar, Khalilabad, Uttar Pradesh, India",26.72774,83.04642,0.78
"Weihu Mt.",
"Aegaen Islands","Aegean Ave, Tampa, FL 33606, United States",27.934,-82.45914,0.77
"Jct Lockwood Valley Road","Valley Rd, Guelph/Eramosa, ON N0B, Canada",43.61114,-80.14521,0.81
"Lake Gairdner","W Gardner Dr, Lake Twp, MI 49304, United States",43.85464,-85.96647,0.92
"Luzon Prov",
"Cap Saint Marie","Cap Saint Marie, Kanifing, Gambia",13.47771,-16.66741,1.0
"Topuchaja","Topuchaya, Shebalinskiy rayon, Siberian Federal District, Russia",51.12748,85.58815,0.78
"Alapona","Carrer Alapont, 46250 l'Alcúdia (Valencia), Spain",39.19677,-0.50884,0.86
"Kangsha River",
"Epirus Turkey","Turkiye",39.92109,32.85393,0.5
"Fan-Si-Pan Mt.",
"Twijford","Twiford Rd, Sharptown, MD 21861, United States",38.53374,-75.7259,0.87
"Taïn River","Main River, Weldford, NB, Canada",46.57776,-64.95865,0.89
"Cuspidaria minima","Minima, Bankass, Mali",13.76334,-3.51051,0.38
"Corynephoretum",
"Leptoscyphus",
"Poléjaeff",
"Kálmán","Kalman', Yur'ev-Pol'skiy rayon, Central Federal District, Russia",56.39057,39.62158,1.0
"Moka Malabo","Rue Malabo, Rabat, Morocco",34.01383,-6.84948,0.9
"Oman Yemen","Yemen",15.3667,44.21122,0.56
"Wielkie Lake","Wielkie Łąki, Korfantów, Opole Voivodeship, Poland",50.49558,17.57332,0.91
"Vatovavy-Fitovinany",
"Hale Lake","Lake Rd, Hale, MI 48739, United States",44.34033,-83.92635,0.99
"Anchoviella nattereri",
"Nikander Island",
"Telrei","Telrui, Sonamukhi, West Bengal, India",23.31241,87.47317,0.83
"Indonesia Kei","Indonesia",-6.17149,106.82649,0.75
"Lakatoro",
"Alto Limay","Valle Alto, Lima, Peru",-12.04013,-76.93987,0.89
"Descobrimento","Avenida do Descobrimento, Porto Seguro - BA, 45810-000, Brazil",-16.44515,-39.06136,1.0
"Ansermanuevo","Ansermanuevo, Colombia",4.79524,-75.99401,1.0
"Hashtijan","Hachijan Road, Ahmedabad 382445, India",22.96238,72.65166,0.78
"POFAD","Pasad, Syennyenski rayon, Vitsyebskaya voblasts', Belarus",54.80383,30.14187,0.6
"Govgan","Govan, SK, Canada",51.31127,-104.99184,0.83
"Hasaracancer",
"Gagari","Gāgari, Isnauda, Ludzas novads, LV-5716, Latvia",56.46142,27.84521,1.0
"Axoclinus",
"Fort Belvoir","Fort Belvoir, VA, United States",38.68838,-77.13524,1.0
"Nevijuncta Marshall","Marshall, TX, United States",32.54691,-94.35011,0.44
"Sungai Lumut","Jalan Lumut, Seria KB1933, Brunei Darussalam",4.61515,114.37142,0.86
"Bonita Pond Downstream",
"Upper Eocene Florissant Shales of U.S.A.","Florissant, MO, United States",38.79171,-90.32338,0.41
"Klidhi",
"Phu Suan Sai",
"Dzhalman","Dzholman, Simferopolskyi raion, Ukraine",44.88173,34.20111,0.75
"Tasmanura","Tasmania, Australia",-42.88165,147.33162,0.67
"Rivnenska","Rivnenska vulytsia, Hoshchanskyi raion, 35400, Ukraine",50.61286,26.68432,1.0
"Gnanakumar","Nanakuma, Jonan-ku, Fukuoka-shi, Fukuoka, Japan",33.55415,130.35992,0.8
"Vandelicampa","La Selva del Camp, Catalonia, Spain",41.21445,1.14096,0.75
"Ithomiini",
"Acapulo","Acapulco de Juárez, Gro, Mexico",16.84948,-99.90943,0.99
"Tyrioceras",
"Pachamama","Pachmma, Begusarai Sub-District, Bihar, India",25.44704,86.14001,1.0
"Páramo de Santurbán",
"Phillipai","Phillip, Kwazulu Natal, South Africa",-27.8475,30.1991,0.78
"Jamaica Jct.","Jamaica",17.97092,-76.78827,0.7
"Silphadenticulata",
"Samal Island","Samal Island",7.06313,125.74033,0.82
"Gulf of Tokin","Gulf Port, IL, United States",40.8151,-91.08637,0.45
"Weswood","Westwood, QLD 4702, Australia",-23.61841,150.15796,0.99
"Saldanha Marinho","Saldanha Marinho, RS, Brazil",-28.40877,-53.09083,1.0
"Mt. Bruno","Mount Bruno, VIC 3675, Australia",-36.3194,146.15906,1.0
"Yponomeuta",
"Münchberg","Münchberg, Bavaria, Germany",50.19165,11.78948,1.0
"Cepiac","Čepić, Oprtalj, Croatia",45.41629,13.81072,0.83
"Bethal","Bethal, Mpumalanga, South Africa",-26.45433,29.46339,1.0
"Sierra de Oaxaca","Callejón de la Sierra, Fracc San José de la Noria, 68120 Oaxaca, Oax, Mexico",17.04874,-96.71949,1.0
"Thlasia",
"Volos","Volos, Thessalia, Greece",39.37415,22.95779,1.0
"Dalu Village","Dale Rd, Leesburg, FL 34788, United States",28.8657,-81.75538,0.77
"Longitshimo River","South River, NJ, United States",40.45078,-74.38157,0.31
"CITY","New York, NY, United States",40.71453,-74.00712,0.99
"Tarapoto-Yurimaguas","Yurimaguas, Loreto, Peru",-5.89466,-76.11573,0.56
"LOS TUXTLAS",
"Karak Kala","Kanak Kala Road, Anand Nagar, Satellite, Ahmedabad 380015, India",23.01238,72.51856,0.89
"non-Great Basin","Great Basin Hwy, Wells, NV 89835, United States",40.51795,-114.93294,0.77
"Mt. Moffatt Section","Mount Moffatt, QLD 4465, Australia",-25.1351,147.78427,0.56
"Anoplocephaloides",
"Western Queensland","Western Fwy, Brisbane QLD 4068, Australia",-27.49256,152.96654,0.99
"Mato Grosso Rio Paraguai","Ponte Rio Paraguai, Jardim Paraíso, Cáceres - MT, 78200-000, Brazil",-16.07512,-57.70295,1.0
"Nybelin","Rue Nybelin, 59430 Dunkirk, France",51.0344,2.33359,1.0
"O'Kasieb","Kąsie, Bełchatów (Gmina), Lodz Voivodeship, Poland",51.24802,19.41271,0.71
"Lower Mississippi River Valley","S Valley Rd, Poplarville, MS 39470, United States",30.74256,-89.70062,0.93
"Penilia","Carretera la Penilla, 22438 Graus (Huesca), Spain",42.25082,0.27791,0.71
"Tanaupodoidea",
"Lake Kharbey","Kharbey, Priural'skiy rayon, Ural Federal District, Russia",67.236,66.15052,0.64
"Brazilian Midwest",
"SSW Block Island","Block Island, RI, United States",41.17245,-71.55781,0.79
"Palma Roja-Pto El Carmen de Putumayo","Palma Roja, Sucumbíos, Ecuador",0.12401,-76.2001,0.57
"Gundillion","Gundill St, Booragoon WA 6154, Australia",-32.03534,115.82441,0.7
"Nidingen-Varberg","Varberg, Halland County, Sweden",57.10789,12.24901,0.47
